Alignment_Network_tb.vcd
$date
	Wed Jan 17 16:37:05 2018
$end
$version
	Icarus Verilog
$end
$timescale
	1s
$end
$scope module Alignment_Network_tb $end
$var wire 64 ! OutBuf [63:0] $end
$var reg 8 " Align_ReadEn_In [7:0] $end
$var reg 64 # InBuf [63:0] $end
$var reg 8 $ InBuf_Enable [7:0] $end
$var reg 3 % align_start [2:0] $end
$var reg 1 & reverse $end
$scope module dut $end
$var wire 64 ' InBuf [63:0] $end
$var wire 3 ( align_start [2:0] $end
$var wire 1 & reverse $end
$var wire 3 ) sel [2:0] $end
$var wire 64 * OutBuf [63:0] $end
$scope begin genblk1[0] $end
$scope module MUX_Data $end
$var wire 8 + In1 [7:0] $end
$var wire 8 , In2 [7:0] $end
$var wire 8 - In3 [7:0] $end
$var wire 8 . In4 [7:0] $end
$var wire 8 / In5 [7:0] $end
$var wire 8 0 In6 [7:0] $end
$var wire 8 1 In7 [7:0] $end
$var wire 8 2 In8 [7:0] $end
$var wire 3 3 Sel [2:0] $end
$var reg 8 4 Out [7:0] $end
$upscope $end
$upscope $end
$scope begin genblk1[1] $end
$scope module MUX_Data $end
$var wire 8 5 In1 [7:0] $end
$var wire 8 6 In2 [7:0] $end
$var wire 8 7 In3 [7:0] $end
$var wire 8 8 In4 [7:0] $end
$var wire 8 9 In5 [7:0] $end
$var wire 8 : In6 [7:0] $end
$var wire 8 ; In7 [7:0] $end
$var wire 8 < In8 [7:0] $end
$var wire 3 = Sel [2:0] $end
$var reg 8 > Out [7:0] $end
$upscope $end
$upscope $end
$scope begin genblk1[2] $end
$scope module MUX_Data $end
$var wire 8 ? In1 [7:0] $end
$var wire 8 @ In2 [7:0] $end
$var wire 8 A In3 [7:0] $end
$var wire 8 B In4 [7:0] $end
$var wire 8 C In5 [7:0] $end
$var wire 8 D In6 [7:0] $end
$var wire 8 E In7 [7:0] $end
$var wire 8 F In8 [7:0] $end
$var wire 3 G Sel [2:0] $end
$var reg 8 H Out [7:0] $end
$upscope $end
$upscope $end
$scope begin genblk1[3] $end
$scope module MUX_Data $end
$var wire 8 I In1 [7:0] $end
$var wire 8 J In2 [7:0] $end
$var wire 8 K In3 [7:0] $end
$var wire 8 L In4 [7:0] $end
$var wire 8 M In5 [7:0] $end
$var wire 8 N In6 [7:0] $end
$var wire 8 O In7 [7:0] $end
$var wire 8 P In8 [7:0] $end
$var wire 3 Q Sel [2:0] $end
$var reg 8 R Out [7:0] $end
$upscope $end
$upscope $end
$scope begin genblk1[4] $end
$scope module MUX_Data $end
$var wire 8 S In1 [7:0] $end
$var wire 8 T In2 [7:0] $end
$var wire 8 U In3 [7:0] $end
$var wire 8 V In4 [7:0] $end
$var wire 8 W In5 [7:0] $end
$var wire 8 X In6 [7:0] $end
$var wire 8 Y In7 [7:0] $end
$var wire 8 Z In8 [7:0] $end
$var wire 3 [ Sel [2:0] $end
$var reg 8 \ Out [7:0] $end
$upscope $end
$upscope $end
$scope begin genblk1[5] $end
$scope module MUX_Data $end
$var wire 8 ] In1 [7:0] $end
$var wire 8 ^ In2 [7:0] $end
$var wire 8 _ In3 [7:0] $end
$var wire 8 ` In4 [7:0] $end
$var wire 8 a In5 [7:0] $end
$var wire 8 b In6 [7:0] $end
$var wire 8 c In7 [7:0] $end
$var wire 8 d In8 [7:0] $end
$var wire 3 e Sel [2:0] $end
$var reg 8 f Out [7:0] $end
$upscope $end
$upscope $end
$scope begin genblk1[6] $end
$scope module MUX_Data $end
$var wire 8 g In1 [7:0] $end
$var wire 8 h In2 [7:0] $end
$var wire 8 i In3 [7:0] $end
$var wire 8 j In4 [7:0] $end
$var wire 8 k In5 [7:0] $end
$var wire 8 l In6 [7:0] $end
$var wire 8 m In7 [7:0] $end
$var wire 8 n In8 [7:0] $end
$var wire 3 o Sel [2:0] $end
$var reg 8 p Out [7:0] $end
$upscope $end
$upscope $end
$scope begin genblk1[7] $end
$scope module MUX_Data $end
$var wire 8 q In1 [7:0] $end
$var wire 8 r In2 [7:0] $end
$var wire 8 s In3 [7:0] $end
$var wire 8 t In4 [7:0] $end
$var wire 8 u In5 [7:0] $end
$var wire 8 v In6 [7:0] $end
$var wire 8 w In7 [7:0] $end
$var wire 8 x In8 [7:0] $end
$var wire 3 y Sel [2:0] $end
$var reg 8 z Out [7:0] $end
$upscope $end
$upscope $end
$upscope $end
$upscope $end
$enddefinitions $end
#0
$dumpvars
b11101111 z
b1 y
b100011 x
b1000101 w
b1100111 v
b10001001 u
b10101011 t
b11001101 s
b11101111 r
b1 q
b1 p
b1 o
b1000101 n
b1100111 m
b10001001 l
b10101011 k
b11001101 j
b11101111 i
b1 h
b100011 g
b100011 f
b1 e
b1100111 d
b10001001 c
b10101011 b
b11001101 a
b11101111 `
b1 _
b100011 ^
b1000101 ]
b1000101 \
b1 [
b10001001 Z
b10101011 Y
b11001101 X
b11101111 W
b1 V
b100011 U
b1000101 T
b1100111 S
b1100111 R
b1 Q
b10101011 P
b11001101 O
b11101111 N
b1 M
b100011 L
b1000101 K
b1100111 J
b10001001 I
b10001001 H
b1 G
b11001101 F
b11101111 E
b1 D
b100011 C
b1000101 B
b1100111 A
b10001001 @
b10101011 ?
b10101011 >
b1 =
b11101111 <
b1 ;
b100011 :
b1000101 9
b1100111 8
b10001001 7
b10101011 6
b11001101 5
b11001101 4
b1 3
b1 2
b100011 1
b1000101 0
b1100111 /
b10001001 .
b10101011 -
b11001101 ,
b11101111 +
b1110111100000001001000110100010101100111100010011010101111001101 *
b1 )
b1 (
b100100011010001010110011110001001101010111100110111101111 '
0&
b1 %
b11111111 $
b100100011010001010110011110001001101010111100110111101111 #
b10000000 "
b1110111100000001001000110100010101100111100010011010101111001101 !
$end
#5
b11101111 4
b11001101 >
b10101011 H
b10001001 R
b1100111 \
b1000101 f
b100011 p
b100100011010001010110011110001001101010111100110111101111 !
b100100011010001010110011110001001101010111100110111101111 *
b1 z
b0 )
b0 3
b0 =
b0 G
b0 Q
b0 [
b0 e
b0 o
b0 y
b0 %
b0 (
#10
b11101111 z
b1 p
b100011 f
b1000101 \
b1100111 R
b10001001 H
b10101011 >
b1110111100000001001000110100010101100111100010011010101111001101 !
b1110111100000001001000110100010101100111100010011010101111001101 *
b11001101 4
b1 )
b1 3
b1 =
b1 G
b1 Q
b1 [
b1 e
b1 o
b1 y
b1 %
b1 (
#15
b10101011 4
b10001001 >
b1100111 H
b1000101 R
b100011 \
b1 f
b11101111 p
b1100110111101111000000010010001101000101011001111000100110101011 !
b1100110111101111000000010010001101000101011001111000100110101011 *
b11001101 z
b10 )
b10 3
b10 =
b10 G
b10 Q
b10 [
b10 e
b10 o
b10 y
b10 %
b10 (
#20
b10101011 z
b11001101 p
b11101111 f
b1 \
b100011 R
b1000101 H
b1100111 >
b1010101111001101111011110000000100100011010001010110011110001001 !
b1010101111001101111011110000000100100011010001010110011110001001 *
b10001001 4
b11 )
b11 3
b11 =
b11 G
b11 Q
b11 [
b11 e
b11 o
b11 y
b11 %
b11 (
#25
b1100111 4
b1000101 >
b100011 H
b1 R
b11101111 \
b11001101 f
b10101011 p
b1000100110101011110011011110111100000001001000110100010101100111 !
b1000100110101011110011011110111100000001001000110100010101100111 *
b10001001 z
b100 )
b100 3
b100 =
b100 G
b100 Q
b100 [
b100 e
b100 o
b100 y
b100 %
b100 (
#30
b1100111 z
b10001001 p
b10101011 f
b11001101 \
b11101111 R
b1 H
b100011 >
b110011110001001101010111100110111101111000000010010001101000101 !
b110011110001001101010111100110111101111000000010010001101000101 *
b1000101 4
b101 )
b101 3
b101 =
b101 G
b101 Q
b101 [
b101 e
b101 o
b101 y
b101 %
b101 (
#35
b100011 4
b1 >
b11101111 H
b11001101 R
b10101011 \
b10001001 f
b1100111 p
b100010101100111100010011010101111001101111011110000000100100011 !
b100010101100111100010011010101111001101111011110000000100100011 *
b1000101 z
b110 )
b110 3
b110 =
b110 G
b110 Q
b110 [
b110 e
b110 o
b110 y
b110 %
b110 (
#40
b100011 z
b1000101 p
b1100111 f
b10001001 \
b10101011 R
b11001101 H
b11101111 >
b10001101000101011001111000100110101011110011011110111100000001 !
b10001101000101011001111000100110101011110011011110111100000001 *
b1 4
b111 )
b111 3
b111 =
b111 G
b111 Q
b111 [
b111 e
b111 o
b111 y
b111 %
b111 (
#45
b11101111 4
b11001101 >
b10101011 H
b10001001 R
b1100111 \
b1000101 f
b100011 p
b100100011010001010110011110001001101010111100110111101111 !
b100100011010001010110011110001001101010111100110111101111 *
b1 z
b0 )
b0 3
b0 =
b0 G
b0 Q
b0 [
b0 e
b0 o
b0 y
b0 %
b0 (
#50
b11101111 z
b1 p
b100011 f
b1000101 \
b1100111 R
b10001001 H
b10101011 >
b1110111100000001001000110100010101100111100010011010101111001101 !
b1110111100000001001000110100010101100111100010011010101111001101 *
b11001101 4
b1 )
b1 3
b1 =
b1 G
b1 Q
b1 [
b1 e
b1 o
b1 y
b1 %
b1 (
#55
b10101011 4
b10001001 >
b1100111 H
b1000101 R
b100011 \
b1 f
b11101111 p
b1100110111101111000000010010001101000101011001111000100110101011 !
b1100110111101111000000010010001101000101011001111000100110101011 *
b11001101 z
b10 )
b10 3
b10 =
b10 G
b10 Q
b10 [
b10 e
b10 o
b10 y
b10 %
b10 (
#60
b10101011 z
b11001101 p
b11101111 f
b1 \
b100011 R
b1000101 H
b1100111 >
b1010101111001101111011110000000100100011010001010110011110001001 !
b1010101111001101111011110000000100100011010001010110011110001001 *
b10001001 4
b11 )
b11 3
b11 =
b11 G
b11 Q
b11 [
b11 e
b11 o
b11 y
b11 %
b11 (
#65
b1100111 4
b1000101 >
b100011 H
b1 R
b11101111 \
b11001101 f
b10101011 p
b1000100110101011110011011110111100000001001000110100010101100111 !
b1000100110101011110011011110111100000001001000110100010101100111 *
b10001001 z
b100 )
b100 3
b100 =
b100 G
b100 Q
b100 [
b100 e
b100 o
b100 y
b100 %
b100 (
#70
b1100111 z
b10001001 p
b10101011 f
b11001101 \
b11101111 R
b1 H
b100011 >
b110011110001001101010111100110111101111000000010010001101000101 !
b110011110001001101010111100110111101111000000010010001101000101 *
b1000101 4
b101 )
b101 3
b101 =
b101 G
b101 Q
b101 [
b101 e
b101 o
b101 y
b101 %
b101 (
#75
b100011 4
b1 >
b11101111 H
b11001101 R
b10101011 \
b10001001 f
b1100111 p
b100010101100111100010011010101111001101111011110000000100100011 !
b100010101100111100010011010101111001101111011110000000100100011 *
b1000101 z
b110 )
b110 3
b110 =
b110 G
b110 Q
b110 [
b110 e
b110 o
b110 y
b110 %
b110 (
#80
b100011 z
b1000101 p
b1100111 f
b10001001 \
b10101011 R
b11001101 H
b11101111 >
b10001101000101011001111000100110101011110011011110111100000001 !
b10001101000101011001111000100110101011110011011110111100000001 *
b1 4
b111 )
b111 3
b111 =
b111 G
b111 Q
b111 [
b111 e
b111 o
b111 y
b111 %
b111 (
#85
b11101111 4
b11001101 >
b10101011 H
b10001001 R
b1100111 \
b1000101 f
b100011 p
b100100011010001010110011110001001101010111100110111101111 !
b100100011010001010110011110001001101010111100110111101111 *
b1 z
b0 )
b0 3
b0 =
b0 G
b0 Q
b0 [
b0 e
b0 o
b0 y
b0 %
b0 (
#90
b11101111 z
b1 p
b100011 f
b1000101 \
b1100111 R
b10001001 H
b10101011 >
b1110111100000001001000110100010101100111100010011010101111001101 !
b1110111100000001001000110100010101100111100010011010101111001101 *
b11001101 4
b1 )
b1 3
b1 =
b1 G
b1 Q
b1 [
b1 e
b1 o
b1 y
b1 %
b1 (
#95
b10101011 4
b10001001 >
b1100111 H
b1000101 R
b100011 \
b1 f
b11101111 p
b1100110111101111000000010010001101000101011001111000100110101011 !
b1100110111101111000000010010001101000101011001111000100110101011 *
b11001101 z
b10 )
b10 3
b10 =
b10 G
b10 Q
b10 [
b10 e
b10 o
b10 y
b10 %
b10 (
#100
b10101011 z
b11001101 p
b11101111 f
b1 \
b100011 R
b1000101 H
b1100111 >
b1010101111001101111011110000000100100011010001010110011110001001 !
b1010101111001101111011110000000100100011010001010110011110001001 *
b10001001 4
b11 )
b11 3
b11 =
b11 G
b11 Q
b11 [
b11 e
b11 o
b11 y
b11 %
b11 (
#105
b1100111 4
b1000101 >
b100011 H
b1 R
b11101111 \
b11001101 f
b10101011 p
b1000100110101011110011011110111100000001001000110100010101100111 !
b1000100110101011110011011110111100000001001000110100010101100111 *
b10001001 z
b100 )
b100 3
b100 =
b100 G
b100 Q
b100 [
b100 e
b100 o
b100 y
b100 %
b100 (
